{
    "name": "pf2qr",
    "title": "Pathfinder 2e Quick Rolls - Mort's Update",
    "description": "Adds a readout after attacks featuring success/failure, and a button to place templates for spells.",
    "author": "Darth_Apples & Liquid-Sonic & Mortaneus",
    "version": "1.4.10",
    "minimumCoreVersion": "0.7.9",
    "esmodules": [ 
        "pf2qr-main.js"
    ],
    "socket" : true,
    "url":"https://gitlab.com/mortaneus/pf2qr",
    "manifest":"https://gitlab.com/mortaneus/pf2qr/raw/master/module.json",
    "download":"https://gitlab.com/mortaneus/pf2qr/-/archive/master/pf2qr-master.zip"
  }
